Chapter 15 US_Census_Data_Kyle_Walker_Presentation_YouTube | Bill’s Drills Book
…
Let’s see if this will connect me with the census data with a few simple queries. get_decennial() defaults to the latest 10-year, simple survey performed by the Census Bureau. The 10-year survey renders numbers.

get_acs() contains much more information, and is based on the latest American Community Survey. ACS variables are rendered as estimates with a margin of error (MOE).

pop10 <- get_decennial(geography = "state", variables = "P001001")

## Getting data from the 2010 decennial Census

## Using Census Summary File 1

pop10

## # A tibble: 52 × 4
##    GEOID NAME        variable    value
##    <chr> <chr>       <chr>       <dbl>
##  1 01    Alabama     P001001   4779736
##  2 02    Alaska      P001001    710231
##  3 04    Arizona     P001001   6392017
##  4 05    Arkansas    P001001   2915918
##  5 06    California  P001001  37253956
##  6 22    Louisiana   P001001   4533372
##  7 21    Kentucky    P001001   4339367
##  8 08    Colorado    P001001   5029196
##  9 09    Connecticut P001001   3574097
## 10 10    Delaware    P001001    897934
## # … with 42 more rows
…
That looks great, but would be very labor intensive to assemble piecemeal.

Luckily, common tables of variables are available.

age_table<- get_acs(geography = "state",
                    table = "B01001")

## Getting data from the 2015-2019 5-year ACS

## Loading ACS5 variables for 2019 from table B01001. To cache this dataset for faster access to ACS tables in the future, run this function with `cache_table = TRUE`. You only need to do this once per ACS dataset.

age_table

## # A tibble: 2,548 × 5
##    GEOID NAME    variable   estimate   moe
##    <chr> <chr>   <chr>         <dbl> <dbl>
##  1 01    Alabama B01001_001  4876250    NA
##  2 01    Alabama B01001_002  2359355  1270
##  3 01    Alabama B01001_003   149090   704
##  4 01    Alabama B01001_004   153494  2290
##  5 01    Alabama B01001_005   158617  2274
##  6 01    Alabama B01001_006    98257   468
##  7 01    Alabama B01001_007    64980   834
##  8 01    Alabama B01001_008    35870  1436
##  9 01    Alabama B01001_009    35040  1472
## 10 01    Alabama B01001_010    95065  1916
## # … with 2,538 more rows

That’s great, but the variables are still encoded in the long form of the table. We’ll need to solve that at some point.

wi_income <- get_acs(geography = "county",
                     variables = "B19013_001",
                     state = "WI",
                     year =  2019)

## Getting data from the 2015-2019 5-year ACS

wi_income

## # A tibble: 72 × 5
##    GEOID NAME                       variable   estimate   moe
##    <chr> <chr>                      <chr>         <dbl> <dbl>
##  1 55001 Adams County, Wisconsin    B19013_001    46369  1834
##  2 55003 Ashland County, Wisconsin  B19013_001    42510  2858
##  3 55005 Barron County, Wisconsin   B19013_001    52703  2104
##  4 55007 Bayfield County, Wisconsin B19013_001    56096  1877
##  5 55009 Brown County, Wisconsin    B19013_001    62340  1112
##  6 55011 Buffalo County, Wisconsin  B19013_001    57829  1873
##  7 55013 Burnett County, Wisconsin  B19013_001    52672  1388
##  8 55015 Calumet County, Wisconsin  B19013_001    75814  2425
##  9 55017 Chippewa County, Wisconsin B19013_001    59742  1759
## 10 55019 Clark County, Wisconsin    B19013_001    54012  1223
## # … with 62 more rows

Querying by census tract is also possible. Census tracts are loosely analogous to neighborhoods and contain about 4000 people.

dane_income <- get_acs(geography = "tract",
                     variables = "B19013_001",
                     state = "WI",
                     county =  "Dane")

## Getting data from the 2015-2019 5-year ACS

dane_income

## # A tibble: 107 × 5
##    GEOID       NAME                                      variable estimate   moe
##    <chr>       <chr>                                     <chr>       <dbl> <dbl>
##  1 55025000100 Census Tract 1, Dane County, Wisconsin    B19013_…    72471 12984
##  2 55025000201 Census Tract 2.01, Dane County, Wisconsin B19013_…    94821 11860
##  3 55025000202 Census Tract 2.02, Dane County, Wisconsin B19013_…    84145  7021
##  4 55025000204 Census Tract 2.04, Dane County, Wisconsin B19013_…    79617 11823
##  5 55025000205 Census Tract 2.05, Dane County, Wisconsin B19013_…    91326 13453
##  6 55025000300 Census Tract 3, Dane County, Wisconsin    B19013_…    53778  7593
##  7 55025000401 Census Tract 4.01, Dane County, Wisconsin B19013_…    98178  7330
##  8 55025000402 Census Tract 4.02, Dane County, Wisconsin B19013_…   107440  6585
##  9 55025000405 Census Tract 4.05, Dane County, Wisconsin B19013_…    68911  4141
## 10 55025000406 Census Tract 4.06, Dane County, Wisconsin B19013_…    74489 10451
## # … with 97 more rows

15.1 Variables

vars <- load_variables(2019, "acs5")
vars

## # A tibble: 27,040 × 3
##    name       label                                    concept   
##    <chr>      <chr>                                    <chr>     
##  1 B01001_001 Estimate!!Total:                         SEX BY AGE
##  2 B01001_002 Estimate!!Total:!!Male:                  SEX BY AGE
##  3 B01001_003 Estimate!!Total:!!Male:!!Under 5 years   SEX BY AGE
##  4 B01001_004 Estimate!!Total:!!Male:!!5 to 9 years    SEX BY AGE
##  5 B01001_005 Estimate!!Total:!!Male:!!10 to 14 years  SEX BY AGE
##  6 B01001_006 Estimate!!Total:!!Male:!!15 to 17 years  SEX BY AGE
##  7 B01001_007 Estimate!!Total:!!Male:!!18 and 19 years SEX BY AGE
##  8 B01001_008 Estimate!!Total:!!Male:!!20 years        SEX BY AGE
##  9 B01001_009 Estimate!!Total:!!Male:!!21 years        SEX BY AGE
## 10 B01001_010 Estimate!!Total:!!Male:!!22 to 24 years  SEX BY AGE
## # … with 27,030 more rows
…
  hhinc <- get_acs(
    geography = "state",
    table = "B19001",
    survey = "acs1"
  )

## The 1-year ACS provides data for geographies with populations of 65,000 and greater.

## Getting data from the 2019 1-year ACS

## Loading ACS1 variables for 2019 from table B19001. To cache this dataset for faster access to ACS tables in the future, run this function with `cache_table = TRUE`. You only need to do this once per ACS dataset.

  hhinc

## # A tibble: 884 × 5
##    GEOID NAME    variable   estimate   moe
##    <chr> <chr>   <chr>         <dbl> <dbl>
##  1 01    Alabama B19001_001  1897576 10370
##  2 01    Alabama B19001_002   154558  5883
##  3 01    Alabama B19001_003   103653  6001
##  4 01    Alabama B19001_004   108500  5926
##  5 01    Alabama B19001_005    98706  6491
##  6 01    Alabama B19001_006    90916  5859
##  7 01    Alabama B19001_007   105146  4149
##  8 01    Alabama B19001_008    85014  5417
##  9 01    Alabama B19001_009    87118  5163
## 10 01    Alabama B19001_010    82323  4231
## # … with 874 more rows
…
## The 1-year ACS provides data for geographies with populations of 65,000 and greater.

## Getting data from the 2019 1-year ACS

## Loading ACS1 variables for 2019 from table B19001. To cache this dataset for faster access to ACS tables in the future, run this function with `cache_table = TRUE`. You only need to do this once per ACS dataset.

hhinc_wide

## # A tibble: 52 × 36
##    GEOID NAME      B19001_001E B19001_001M B19001_002E B19001_002M B19001_003E
##    <chr> <chr>           <dbl>       <dbl>       <dbl>       <dbl>       <dbl>
##  1 17    Illinois      4866006       12627      289515        9500      178230
##  2 13    Georgia       3852714       14425      237054        8319      163741
##  3 16    Idaho          655859        5316       27773        3127       24498
##  4 15    Hawaii         465299        5012       23344        2470       12238
##  5 18    Indiana       2597765       12716      153355        7188      104333
##  6 19    Iowa          1287221        6606       65503        3958       52788
##  7 20    Kansas        1138329        6595       57967        4269       49134
##  8 21    Kentucky      1748732        8789      137394        7450       96775
##  9 22    Louisiana     1741076       11011      175845        7581       98971
## 10 23    Maine          573618        4999       29156        2776       26772
## # … with 42 more rows, and 29 more variables: B19001_003M <dbl>,
## #   B19001_004E <dbl>, B19001_004M <dbl>, B19001_005E <dbl>, B19001_005M <dbl>,
## #   B19001_006E <dbl>, B19001_006M <dbl>, B19001_007E <dbl>, B19001_007M <dbl>,
## #   B19001_008E <dbl>, B19001_008M <dbl>, B19001_009E <dbl>, B19001_009M <dbl>,
## #   B19001_010E <dbl>, B19001_010M <dbl>, B19001_011E <dbl>, B19001_011M <dbl>,
## #   B19001_012E <dbl>, B19001_012M <dbl>, B19001_013E <dbl>, B19001_013M <dbl>,
## #   B19001_014E <dbl>, B19001_014M <dbl>, B19001_015E <dbl>, …
…
We still aren’t transparent with respect to vectors. I will never remember them. Named vectors can be used:

ga_wide <- get_acs(
  geography = "county",
  state = "GA",
  variables = c(median_inc = "B19013_001",
                median_age = "B01002_001"),
  output = "wide"
)

## Getting data from the 2015-2019 5-year ACS

ga_wide

## # A tibble: 159 × 6
##    GEOID NAME                    median_incE median_incM median_ageE median_ageM
##    <chr> <chr>                         <dbl>       <dbl>       <dbl>       <dbl>
##  1 13005 Bacon County, Georgia         37519        5492        36.7         0.7
##  2 13025 Brantley County, Georg…       38857        3480        41.1         0.8
##  3 13017 Ben Hill County, Georg…       32229        3845        39.9         1.1
##  4 13033 Burke County, Georgia         44151        2438        37.4         0.6
##  5 13047 Catoosa County, Georgia       56235        2290        40.4         0.4
##  6 13053 Chattahoochee County, …       47096        5158        24.5         0.5
##  7 13055 Chattooga County, Geor…       36807        2268        39.4         0.7
##  8 13073 Columbia County, Georg…       82339        3532        36.9         0.4
##  9 13087 Decatur County, Georgia       41481        3584        37.8         0.6
## 10 13115 Floyd County, Georgia         48336        2266        38.3         0.3
## # … with 149 more rows

Let’s try something closer to home:

med_age_Hennepin_wide <- get_acs(
  geography = "tract",
  state = "MN",
  variables = c(median_age = "B01002_001"),
  output = "wide"
)

## Getting data from the 2015-2019 5-year ACS

med_age_Hennepin_wide

## # A tibble: 1,338 × 4
##    GEOID       NAME                                      median_ageE median_ageM
##    <chr>       <chr>                                           <dbl>       <dbl>
##  1 27053025401 Census Tract 254.01, Hennepin County, Mi…        37.4         3.8
##  2 27053025805 Census Tract 258.05, Hennepin County, Mi…        52.2         6  
##  3 27053026018 Census Tract 260.18, Hennepin County, Mi…        41.9         1.8
##  4 27053026402 Census Tract 264.02, Hennepin County, Mi…        36.1         2.9
##  5 27053026404 Census Tract 264.04, Hennepin County, Mi…        50.5         3.7
##  6 27053026809 Census Tract 268.09, Hennepin County, Mi…        29.1         2.2
##  7 27053027602 Census Tract 276.02, Hennepin County, Mi…        45.9         3.6
##  8 27053102000 Census Tract 1020, Hennepin County, Minn…        33.9         3.6
##  9 27053103600 Census Tract 1036, Hennepin County, Minn…        47.9         5.1
## 10 27053022902 Census Tract 229.02, Hennepin County, Mi…        40.2         3.1
## # … with 1,328 more rows
…
## Getting data from the 2015-2019 5-year ACS

mn_wide

## # A tibble: 87 × 18
##    GEOID NAME          total_popE total_popM median_incE median_incM median_ageE
##    <chr> <chr>              <dbl>      <dbl>       <dbl>       <dbl>       <dbl>
##  1 27093 Meeker Count…      23105         NA       63452        1601        42.2
##  2 27131 Rice County,…      66185         NA       68584        2227        36.5
##  3 27125 Red Lake Cou…       4015         NA       58576        4262        42.7
##  4 27027 Clay County,…      63446         NA       65269        2909        32.6
##  5 27045 Fillmore Cou…      20949         NA       61207        1604        42.3
##  6 27119 Polk County,…      31521         NA       59343        2282        38.7
##  7 27143 Sibley Count…      14892         NA       63439        1646        41.7
##  8 27165 Watonwan Cou…      10972         NA       54065        2930        39.9
##  9 27011 Big Stone Co…       4996         NA       53900        5054        49  
## 10 27021 Cass County,…      29268         NA       52204        1447        48.9
## # … with 77 more rows, and 11 more variables: median_ageM <dbl>, whiteE <dbl>,
## #   whiteM <dbl>, blackE <dbl>, blackM <dbl>, native_amE <dbl>,
## #   native_amM <dbl>, asianE <dbl>, asianM <dbl>, doctorE <dbl>, doctorM <dbl>

15.2 Part 2: Wrangling Census Data with tidyverse Tools

median_age <- get_acs(
  geography = "county",
  variables = "B01002_001"
)

## Getting data from the 2015-2019 5-year ACS

arrange(median_age, estimate)

## # A tibble: 3,220 × 5
##    GEOID NAME                          variable   estimate   moe
##    <chr> <chr>                         <chr>         <dbl> <dbl>
##  1 51678 Lexington city, Virginia      B01002_001     22.3   0.7
##  2 51750 Radford city, Virginia        B01002_001     23.4   0.5
##  3 16065 Madison County, Idaho         B01002_001     23.5   0.2
##  4 46121 Todd County, South Dakota     B01002_001     23.8   0.4
##  5 02158 Kusilvak Census Area, Alaska  B01002_001     24.1   0.2
##  6 13053 Chattahoochee County, Georgia B01002_001     24.5   0.5
##  7 53075 Whitman County, Washington    B01002_001     24.7   0.3
##  8 49049 Utah County, Utah             B01002_001     24.8   0.1
##  9 46027 Clay County, South Dakota     B01002_001     24.9   0.4
## 10 51830 Williamsburg city, Virginia   B01002_001     24.9   0.7
## # … with 3,210 more rows

arrange(median_age, desc(estimate))

## # A tibble: 3,220 × 5
##    GEOID NAME                            variable   estimate   moe
##    <chr> <chr>                           <chr>         <dbl> <dbl>
##  1 12119 Sumter County, Florida          B01002_001     67.4   0.2
##  2 51091 Highland County, Virginia       B01002_001     60.9   3.5
##  3 08027 Custer County, Colorado         B01002_001     59.7   2.6
##  4 12015 Charlotte County, Florida       B01002_001     59.1   0.2
##  5 41069 Wheeler County, Oregon          B01002_001     59     3.3
##  6 51133 Northumberland County, Virginia B01002_001     58.9   0.7
##  7 26131 Ontonagon County, Michigan      B01002_001     58.6   0.4
##  8 35021 Harding County, New Mexico      B01002_001     58.5   5.5
##  9 53031 Jefferson County, Washington    B01002_001     58.3   0.7
## 10 26001 Alcona County, Michigan         B01002_001     58.2   0.3
## # … with 3,210 more rows
…
az_race <- get_acs(
  geography = "county",
  state = "AZ",
  variables = race_vars,
  summary_var = "B03002_001"
)

## Getting data from the 2015-2019 5-year ACS

az_race

## # A tibble: 90 × 7
##    GEOID NAME                    variable estimate   moe summary_est summary_moe
##    <chr> <chr>                   <chr>       <dbl> <dbl>       <dbl>       <dbl>
##  1 04001 Apache County, Arizona  white       13022     4       71511          NA
##  2 04001 Apache County, Arizona  black         373   138       71511          NA
##  3 04001 Apache County, Arizona  native      52285   234       71511          NA
##  4 04001 Apache County, Arizona  asian         246    78       71511          NA
##  5 04001 Apache County, Arizona  HIPI           16    16       71511          NA
##  6 04001 Apache County, Arizona  hispanic     4531    NA       71511          NA
##  7 04003 Cochise County, Arizona white       69216   235      125867          NA
##  8 04003 Cochise County, Arizona black        4620   247      125867          NA
##  9 04003 Cochise County, Arizona native       1142   191      125867          NA
## 10 04003 Cochise County, Arizona asian        2431   162      125867          NA
## # … with 80 more rows

15.2.1 Normalizing the data with mutate().

az_race_percent <-  az_race %>% 
  mutate(percent = 100*(estimate/summary_est)) %>% 
  select(NAME, variable, percent)

az_race_percent

## # A tibble: 90 × 3
##    NAME                    variable percent
##    <chr>                   <chr>      <dbl>
##  1 Apache County, Arizona  white    18.2   
##  2 Apache County, Arizona  black     0.522 
##  3 Apache County, Arizona  native   73.1   
##  4 Apache County, Arizona  asian     0.344 
##  5 Apache County, Arizona  HIPI      0.0224
##  6 Apache County, Arizona  hispanic  6.34  
##  7 Cochise County, Arizona white    55.0   
##  8 Cochise County, Arizona black     3.67  
##  9 Cochise County, Arizona native    0.907 
## 10 Cochise County, Arizona asian     1.93  
## # … with 80 more rows
…
15.2.5 get_estimates() and how to use them

utah <- get_estimates(
  geography = "state",
  state = "UT",
  product = "characteristics",
  breakdown = c("SEX", "AGEGROUP"),
  breakdown_labels = TRUE,
  year = 2019
)

utah

## # A tibble: 96 × 5
##    GEOID NAME    value SEX        AGEGROUP          
##    <chr> <chr>   <dbl> <chr>      <fct>             
##  1 49    Utah  3205958 Both sexes All ages          
##  2 49    Utah   247803 Both sexes Age 0 to 4 years  
##  3 49    Utah   258976 Both sexes Age 5 to 9 years  
##  4 49    Utah   267985 Both sexes Age 10 to 14 years
##  5 49    Utah  1614917 Male       All ages          
##  6 49    Utah   132868 Male       Age 5 to 9 years  
##  7 49    Utah   137940 Male       Age 10 to 14 years
##  8 49    Utah  1591041 Female     All ages          
##  9 49    Utah   126108 Female     Age 5 to 9 years  
## 10 49    Utah    23039 Female     Age 80 to 84 years
## # … with 86 more rows

utah_filtered <- filter(utah, str_detect(AGEGROUP, "^Age"),
                        SEX != "Both sexes") %>% 
  mutate(value = ifelse(SEX == "Male", -value, value))

utah_filtered

## # A tibble: 36 × 5
##    GEOID NAME    value SEX    AGEGROUP          
##    <chr> <chr>   <dbl> <chr>  <fct>             
##  1 49    Utah  -132868 Male   Age 5 to 9 years  
##  2 49    Utah  -137940 Male   Age 10 to 14 years
##  3 49    Utah   126108 Female Age 5 to 9 years  
##  4 49    Utah    23039 Female Age 80 to 84 years
##  5 49    Utah  -129312 Male   Age 15 to 19 years
##  6 49    Utah   130045 Female Age 10 to 14 years
##  7 49    Utah   124535 Female Age 15 to 19 years
##  8 49    Utah  -135806 Male   Age 20 to 24 years
##  9 49    Utah   128846 Female Age 20 to 24 years
## 10 49    Utah  -111776 Male   Age 30 to 34 years
## # … with 26 more rows
…
