Chapter 7 Data Exploration | Bill’s Drills Book
…
The above example shows that count() performs in the usual way unless we use the wt = argument, which then sums the value specified and generates n, which now indicates a weight, not a count of a nominal variable.

7.4 Summarize is another very useful function:

starwars %>%
    filter(!(is.na(species))) %>%
    group_by(species) %>%
    summarize(n = n(), mean = mean(height, na.rm = TRUE)) %>%
    arrange(desc(n))

## # A tibble: 37 × 3
##    species      n  mean
##    <chr>    <int> <dbl>
##  1 Human       35  177.
##  2 Droid        6  131.
##  3 Gungan       3  209.
##  4 Kaminoan     2  221 
##  5 Mirialan     2  168 
##  6 Twi'lek      2  179 
##  7 Wookiee      2  231 
##  8 Zabrak       2  173 
##  9 Aleena       1   79 
## 10 Besalisk     1  198 
## # … with 27 more rows
…
