Chapter 5 Factor Practice | Bill’s Drills Book
…
## [1] "small"  "medium" "large"

levels(manyCups)

## NULL

The forcats package is designed to work with factors. Although I use it frequently, I haven’t generalized the ideas, or internalized them. That’s a mistake. The RStudio cheat sheet is a nice place to begin with this: https://rstudio.com/resources/cheatsheets/.

Let’s use my favorite starwars illustration to help illustrate some of forcats’s usefulness.

starwars %>% 
  filter(!is.na(species)) %>% 
  count(species, sort = TRUE)

## # A tibble: 37 × 2
##    species      n
##    <chr>    <int>
##  1 Human       35
##  2 Droid        6
##  3 Gungan       3
##  4 Kaminoan     2
##  5 Mirialan     2
##  6 Twi'lek      2
##  7 Wookiee      2
##  8 Zabrak       2
##  9 Aleena       1
## 10 Besalisk     1
## # … with 27 more rows
…
5.4 Inspecting factors

We see that there are a ton of unique species in this list.

fct_count(starwars$species, sort = TRUE)

## # A tibble: 38 × 2
##    f            n
##    <fct>    <int>
##  1 Human       35
##  2 Droid        6
##  3 <NA>         4
##  4 Gungan       3
##  5 Kaminoan     2
##  6 Mirialan     2
##  7 Twi'lek      2
##  8 Wookiee      2
##  9 Zabrak       2
## 10 Aleena       1
## # … with 28 more rows
…
